<?xml version="1.0" encoding="UTF-8"?>
<svg width="358px" height="397px" viewBox="0 0 358 397" version="1.1" xmlns="http://www.w3.org/2000/svg" xmlns:xlink="http://www.w3.org/1999/xlink">
    <!-- Generator: Sketch 63.1 (92452) - https://sketch.com -->
    <title>congregate_color_logo</title>
    <desc>Created with Sketch.</desc>
    <g id="Page-1" stroke="none" stroke-width="1" fill="none" fill-rule="evenodd">
        <g id="CongregateLogo-Copy" transform="translate(-135.000000, -62.000000)">
            <g id="congregate_color_logo" transform="translate(9.000000, -92.000000)">
                <polygon id="Triangle" fill="#BA5883" opacity="0.1" transform="translate(233.000000, 232.000000) scale(-1, -1) rotate(135.000000) translate(-233.000000, -232.000000) " points="233 122 450 342 16 342"></polygon>
                <polygon id="Triangle" fill="#BA5883" opacity="0.2" transform="translate(215.500000, 250.000000) scale(-1, -1) rotate(135.000000) translate(-215.500000, -250.000000) " points="240.845588 140 407 360 24 360"></polygon>
                <polygon id="Triangle" fill="#BA5883" opacity="0.2" transform="translate(194.000000, 271.000000) scale(-1, -1) rotate(135.000000) translate(-194.000000, -271.000000) " points="247.724138 161 358 381 30 381"></polygon>
                <polygon id="Triangle" fill="#BA5883" opacity="0.2" transform="translate(175.000000, 290.000000) scale(-1, -1) rotate(135.000000) translate(-175.000000, -290.000000) " points="256.036269 180 311 400 39 400"></polygon>
                <polygon id="Triangle" fill="#BA5883" opacity="0.2" transform="translate(154.500000, 309.000000) scale(-1, -1) rotate(135.000000) translate(-154.500000, -309.000000) " points="263 199 263 419 46 419"></polygon>
                <polygon id="Triangle" fill="#BA5883" opacity="0.2" transform="translate(154.500000, 309.000000) scale(-1, -1) rotate(135.000000) translate(-154.500000, -309.000000) " points="263 199 209.454545 419 46 419"></polygon>
                <polygon id="Triangle" fill="#BA5883" opacity="0.2" transform="translate(154.500000, 309.000000) scale(-1, -1) rotate(135.000000) translate(-154.500000, -309.000000) " points="263 199 154.5 419 46 419"></polygon>
                <polygon id="Triangle" fill="#BA5883" opacity="0.2" transform="translate(154.500000, 309.000000) scale(-1, -1) rotate(135.000000) translate(-154.500000, -309.000000) " points="263 199 99.5454545 419 46 419"></polygon>
                <polygon id="Triangle" fill="#BA5883" opacity="0.1" transform="translate(386.000000, 389.500000) rotate(135.000000) translate(-386.000000, -389.500000) " points="386 280 602 499 170 499"></polygon>
                <polygon id="Triangle" fill="#BA5883" opacity="0.2" transform="translate(403.500000, 371.500000) rotate(135.000000) translate(-403.500000, -371.500000) " points="428.713235 262 594 481 213 481"></polygon>
                <polygon id="Triangle" fill="#BA5883" opacity="0.2" transform="translate(424.000000, 351.500000) rotate(135.000000) translate(-424.000000, -351.500000) " points="477.396552 242 587 461 261 461"></polygon>
                <polygon id="Triangle" fill="#BA5883" opacity="0.2" transform="translate(443.500000, 332.500000) rotate(135.000000) translate(-443.500000, -332.500000) " points="524.238342 223 579 442 308 442"></polygon>
                <polygon id="Triangle" fill="#BA5883" opacity="0.2" transform="translate(463.000000, 312.500000) rotate(135.000000) translate(-463.000000, -312.500000) " points="571 203 571 422 355 422"></polygon>
                <polygon id="Triangle" fill="#BA5883" opacity="0.2" transform="translate(463.000000, 312.500000) rotate(135.000000) translate(-463.000000, -312.500000) " points="571 203 517.701299 422 355 422"></polygon>
                <polygon id="Triangle" fill="#BA5883" opacity="0.2" transform="translate(463.000000, 312.500000) rotate(135.000000) translate(-463.000000, -312.500000) " points="571 203 463 422 355 422"></polygon>
                <polygon id="Triangle" fill="#BA5883" opacity="0.2" transform="translate(463.000000, 312.500000) rotate(135.000000) translate(-463.000000, -312.500000) " points="571 203 408.298701 422 355 422"></polygon>
                <polygon id="Triangle" fill="#BA5883" opacity="0.1" points="309 155 463 311 155 311"></polygon>
                <polygon id="Triangle" fill="#BA5883" opacity="0.2" points="309 155 427 311 155 311"></polygon>
                <polygon id="Triangle" fill="#BA5883" opacity="0.2" points="309 155 387 311 155 311"></polygon>
                <polygon id="Triangle" fill="#BA5883" opacity="0.2" points="309 155 348 311 155 311"></polygon>
                <polygon id="Triangle" fill="#BA5883" opacity="0.2" points="309 155 309 311 155 311"></polygon>
                <polygon id="Triangle" fill="#BA5883" opacity="0.2" points="309 155 271 311 155 311"></polygon>
                <polygon id="Triangle" fill="#BA5883" opacity="0.2" points="309 155 232 311 155 311"></polygon>
                <polygon id="Triangle" fill="#BA5883" opacity="0.2" points="309 155 193 311 155 311"></polygon>
                <polygon id="Triangle" fill="#BA5883" opacity="0.1" transform="translate(309.000000, 389.000000) scale(-1, -1) translate(-309.000000, -389.000000) " points="309 311 463 467 155 467"></polygon>
                <polygon id="Triangle" fill="#BA5883" opacity="0.2" transform="translate(327.000000, 389.000000) scale(-1, -1) translate(-327.000000, -389.000000) " points="345 311 463 467 191 467"></polygon>
                <polygon id="Triangle" fill="#BA5883" opacity="0.2" transform="translate(347.000000, 389.000000) scale(-1, -1) translate(-347.000000, -389.000000) " points="385 311 463 467 231 467"></polygon>
                <polygon id="Triangle" fill="#BA5883" opacity="0.2" transform="translate(366.500000, 389.000000) scale(-1, -1) translate(-366.500000, -389.000000) " points="424 311 463 467 270 467"></polygon>
                <polygon id="Triangle" fill="#BA5883" opacity="0.2" transform="translate(386.000000, 389.000000) scale(-1, -1) translate(-386.000000, -389.000000) " points="463 311 463 467 309 467"></polygon>
                <polygon id="Triangle" fill="#BA5883" opacity="0.2" transform="translate(386.000000, 389.000000) scale(-1, -1) translate(-386.000000, -389.000000) " points="463 311 425 467 309 467"></polygon>
                <polygon id="Triangle" fill="#BA5883" opacity="0.2" transform="translate(386.000000, 389.000000) scale(-1, -1) translate(-386.000000, -389.000000) " points="463 311 386 467 309 467"></polygon>
                <polygon id="Triangle" fill="#BA5883" opacity="0.2" transform="translate(386.000000, 389.000000) scale(-1, -1) translate(-386.000000, -389.000000) " points="463 311 347 467 309 467"></polygon>
                <path d="M145.45,540.4 C147.85,540.4 150.066667,540.016667 152.1,539.25 C154.133333,538.483333 155.616667,537.716667 156.55,536.95 L156.55,536.95 L153.55,530.45 C152.716667,531.25 151.583333,531.941667 150.15,532.525 C148.716667,533.108333 147.1,533.4 145.3,533.4 C143.066667,533.4 141.116667,532.9 139.45,531.9 C137.783333,530.9 136.5,529.508333 135.6,527.725 C134.7,525.941667 134.25,523.866667 134.25,521.5 C134.25,519.333333 134.733333,517.358333 135.7,515.575 C136.666667,513.791667 137.966667,512.383333 139.6,511.35 C141.233333,510.316667 142.983333,509.8 144.85,509.8 C147.616667,509.8 150.316667,510.8 152.95,512.8 L152.95,512.8 L155.8,505.95 C154.366667,505.05 152.7,504.3 150.8,503.7 C148.9,503.1 146.833333,502.8 144.6,502.8 C141.066667,502.8 137.95,503.608333 135.25,505.225 C132.55,506.841667 130.45,509.1 128.95,512 C127.45,514.9 126.7,518.2 126.7,521.9 C126.7,525.266667 127.45,528.358333 128.95,531.175 C130.45,533.991667 132.616667,536.233333 135.45,537.9 C138.283333,539.566667 141.616667,540.4 145.45,540.4 Z M182.2,540.6 C184.7,540.6 186.875,540.091667 188.725,539.075 C190.575,538.058333 192,536.65 193,534.85 C194,533.05 194.5,531.033333 194.5,528.8 C194.5,526.566667 194,524.566667 193,522.8 C192,521.033333 190.575,519.641667 188.725,518.625 C186.875,517.608333 184.733333,517.1 182.3,517.1 C179.866667,517.1 177.691667,517.608333 175.775,518.625 C173.858333,519.641667 172.375,521.033333 171.325,522.8 C170.275,524.566667 169.75,526.566667 169.75,528.8 C169.75,531.233333 170.275,533.333333 171.325,535.1 C172.375,536.866667 173.841667,538.225 175.725,539.175 C177.608333,540.125 179.766667,540.6 182.2,540.6 Z M182.1,534.9 C180.566667,534.9 179.3,534.325 178.3,533.175 C177.3,532.025 176.8,530.583333 176.8,528.85 C176.8,527.116667 177.3,525.675 178.3,524.525 C179.3,523.375 180.566667,522.8 182.1,522.8 C183.7,522.8 184.991667,523.366667 185.975,524.5 C186.958333,525.633333 187.45,527.083333 187.45,528.85 C187.45,530.616667 186.958333,532.066667 185.975,533.2 C184.991667,534.333333 183.7,534.9 182.1,534.9 Z M215.8,540 L215.8,531.1 C215.8,528.733333 216.283333,526.8 217.25,525.3 C218.216667,523.8 219.5,523.05 221.1,523.05 C223.133333,523.05 224.2,524.116667 224.3,526.25 L224.3,526.25 L224.3,540 L231.3,540 L231.3,523.65 C231.266667,521.75 230.558333,520.183333 229.175,518.95 C227.791667,517.716667 226.066667,517.1 224,517.1 C222.066667,517.1 220.391667,517.5 218.975,518.3 C217.558333,519.1 216.45,520.216667 215.65,521.65 L215.65,521.65 L215.15,518.15 L208.8,518.15 L208.8,540 L215.8,540 Z M258.6,551 C260.966667,551 263.158333,550.525 265.175,549.575 C267.191667,548.625 268.791667,547.308333 269.975,545.625 C271.158333,543.941667 271.75,542.066667 271.75,540 L271.75,540 L271.75,518.15 L265.3,518.15 L264.75,519.85 C264.016667,519.016667 262.95,518.341667 261.55,517.825 C260.15,517.308333 258.55,517.05 256.75,517.05 C254.85,517.05 253.041667,517.566667 251.325,518.6 C249.608333,519.633333 248.225,521.066667 247.175,522.9 C246.125,524.733333 245.6,526.75 245.6,528.95 C245.6,531.116667 246.1,533.091667 247.1,534.875 C248.1,536.658333 249.441667,538.058333 251.125,539.075 C252.808333,540.091667 254.633333,540.6 256.6,540.6 C258.6,540.6 260.291667,540.25 261.675,539.55 C263.058333,538.85 264.083333,537.933333 264.75,536.8 L264.75,536.8 L264.75,539.9 C264.75,541.466667 264.15,542.691667 262.95,543.575 C261.75,544.458333 260.266667,544.9 258.5,544.9 C257,544.9 255.758333,544.633333 254.775,544.1 C253.791667,543.566667 252.8,542.833333 251.8,541.9 L251.8,541.9 L247.7,546.7 C248.833333,547.633333 249.808333,548.366667 250.625,548.9 C251.441667,549.433333 252.525,549.916667 253.875,550.35 C255.225,550.783333 256.8,551 258.6,551 Z M258.7,534.9 C257,534.9 255.566667,534.308333 254.4,533.125 C253.233333,531.941667 252.65,530.483333 252.65,528.75 C252.65,527.016667 253.233333,525.583333 254.4,524.45 C255.566667,523.316667 257,522.75 258.7,522.75 C260.1,522.75 261.341667,523.066667 262.425,523.7 C263.508333,524.333333 264.283333,525.183333 264.75,526.25 L264.75,526.25 L264.75,531.6 C263.516667,533.8 261.5,534.9 258.7,534.9 Z M294.7,540 L294.7,531.45 C294.7,530.25 294.983333,529.075 295.55,527.925 C296.116667,526.775 296.933333,525.833333 298,525.1 C299.066667,524.366667 300.3,524 301.7,524 C302.066667,524 302.35,524.016667 302.55,524.05 L302.55,524.05 L302.9,517.05 C302.266667,517.05 301.4,517.308333 300.3,517.825 C299.2,518.341667 298.125,519.066667 297.075,520 C296.025,520.933333 295.2,521.983333 294.6,523.15 L294.6,523.15 L294.05,518.15 L287.75,518.15 L287.75,540 L294.7,540 Z M326.8,540.6 C328,540.6 329.266667,540.4 330.6,540 C331.933333,539.6 333.2,539.066667 334.4,538.4 L334.4,538.4 L331.3,533.2 C329.8,534.166667 328.35,534.65 326.95,534.65 C325.116667,534.65 323.666667,534.033333 322.6,532.8 L322.6,532.8 L338.6,527.7 C338,524.3 336.691667,521.683333 334.675,519.85 C332.658333,518.016667 330.083333,517.1 326.95,517.1 C324.65,517.1 322.533333,517.625 320.6,518.675 C318.666667,519.725 317.141667,521.15 316.025,522.95 C314.908333,524.75 314.35,526.716667 314.35,528.85 C314.35,531.15 314.833333,533.191667 315.8,534.975 C316.766667,536.758333 318.191667,538.141667 320.075,539.125 C321.958333,540.108333 324.2,540.6 326.8,540.6 Z M321.25,528.9 L321.25,528.45 C321.25,526.65 321.716667,525.216667 322.65,524.15 C323.583333,523.083333 324.833333,522.55 326.4,522.55 C328.666667,522.55 330.15,523.583333 330.85,525.65 L330.85,525.65 L321.25,528.9 Z M363.8,551 C366.166667,551 368.358333,550.525 370.375,549.575 C372.391667,548.625 373.991667,547.308333 375.175,545.625 C376.358333,543.941667 376.95,542.066667 376.95,540 L376.95,540 L376.95,518.15 L370.5,518.15 L369.95,519.85 C369.216667,519.016667 368.15,518.341667 366.75,517.825 C365.35,517.308333 363.75,517.05 361.95,517.05 C360.05,517.05 358.241667,517.566667 356.525,518.6 C354.808333,519.633333 353.425,521.066667 352.375,522.9 C351.325,524.733333 350.8,526.75 350.8,528.95 C350.8,531.116667 351.3,533.091667 352.3,534.875 C353.3,536.658333 354.641667,538.058333 356.325,539.075 C358.008333,540.091667 359.833333,540.6 361.8,540.6 C363.8,540.6 365.491667,540.25 366.875,539.55 C368.258333,538.85 369.283333,537.933333 369.95,536.8 L369.95,536.8 L369.95,539.9 C369.95,541.466667 369.35,542.691667 368.15,543.575 C366.95,544.458333 365.466667,544.9 363.7,544.9 C362.2,544.9 360.958333,544.633333 359.975,544.1 C358.991667,543.566667 358,542.833333 357,541.9 L357,541.9 L352.9,546.7 C354.033333,547.633333 355.008333,548.366667 355.825,548.9 C356.641667,549.433333 357.725,549.916667 359.075,550.35 C360.425,550.783333 362,551 363.8,551 Z M363.9,534.9 C362.2,534.9 360.766667,534.308333 359.6,533.125 C358.433333,531.941667 357.85,530.483333 357.85,528.75 C357.85,527.016667 358.433333,525.583333 359.6,524.45 C360.766667,523.316667 362.2,522.75 363.9,522.75 C365.3,522.75 366.541667,523.066667 367.625,523.7 C368.708333,524.333333 369.483333,525.183333 369.95,526.25 L369.95,526.25 L369.95,531.6 C368.716667,533.8 366.7,534.9 363.9,534.9 Z M402.15,540.6 C404.916667,540.6 407.35,539.5 409.45,537.3 L409.45,537.3 L409.45,540 L416.45,540 L416.45,518.15 L409.95,518.15 L409.5,520.4 C408.633333,519.333333 407.633333,518.508333 406.5,517.925 C405.366667,517.341667 403.833333,517.05 401.9,517.05 C400.033333,517.05 398.283333,517.55 396.65,518.55 C395.016667,519.55 393.708333,520.958333 392.725,522.775 C391.741667,524.591667 391.25,526.7 391.25,529.1 C391.25,532.9 392.258333,535.766667 394.275,537.7 C396.291667,539.633333 398.916667,540.6 402.15,540.6 Z M404.15,534.9 C403.116667,534.9 402.158333,534.633333 401.275,534.1 C400.391667,533.566667 399.683333,532.825 399.15,531.875 C398.616667,530.925 398.35,529.883333 398.35,528.75 C398.35,527.016667 398.891667,525.583333 399.975,524.45 C401.058333,523.316667 402.366667,522.75 403.9,522.75 C405.233333,522.75 406.391667,523.066667 407.375,523.7 C408.358333,524.333333 409.05,525.183333 409.45,526.25 L409.45,526.25 L409.45,531.6 C408.35,533.8 406.583333,534.9 404.15,534.9 Z M441.5,540 L441.5,523.5 L446.8,523.5 L446.8,518.05 L441.5,518.05 L441.5,508.55 L434.5,508.55 L434.5,518.05 L431.1,518.05 L431.1,523.5 L434.5,523.5 L434.5,540 L441.5,540 Z M471.7,540.6 C472.9,540.6 474.166667,540.4 475.5,540 C476.833333,539.6 478.1,539.066667 479.3,538.4 L479.3,538.4 L476.2,533.2 C474.7,534.166667 473.25,534.65 471.85,534.65 C470.016667,534.65 468.566667,534.033333 467.5,532.8 L467.5,532.8 L483.5,527.7 C482.9,524.3 481.591667,521.683333 479.575,519.85 C477.558333,518.016667 474.983333,517.1 471.85,517.1 C469.55,517.1 467.433333,517.625 465.5,518.675 C463.566667,519.725 462.041667,521.15 460.925,522.95 C459.808333,524.75 459.25,526.716667 459.25,528.85 C459.25,531.15 459.733333,533.191667 460.7,534.975 C461.666667,536.758333 463.091667,538.141667 464.975,539.125 C466.858333,540.108333 469.1,540.6 471.7,540.6 Z M466.15,528.9 L466.15,528.45 C466.15,526.65 466.616667,525.216667 467.55,524.15 C468.483333,523.083333 469.733333,522.55 471.3,522.55 C473.566667,522.55 475.05,523.583333 475.75,525.65 L475.75,525.65 L466.15,528.9 Z" id="Congregate" fill="#000000" fill-rule="nonzero"></path>
            </g>
        </g>
    </g>
</svg>